Shinkansen
…
url <- "https://www.jorudan.co.jp/time/cgi/time.cgi?Csg = 0&Sok = 1&pg = 21&rf = tm&lnm = %A4%A2%A4%B5%A4%DE613%B9%E6%28E7%2FW7%B7%CF%29%28%C4%B9%CC%EE%B9%D4%29&rnm = %CB%CC%CE%A6%BF%B7%B4%B4%C0%FE&eki1 = %C5%EC%B5%FE&eki2 = D%B6%E2%C2%F4&Dym = 202203&Ddd = 14&Dhh = 14&Dmn = 24&Dw = 0"

p1 <- read_html(url) %>% 
  html_nodes('td') %>% html_text() %>% 
  as_tibble() %>% mutate(value = str_remove_all(value,  "\n"))
  
saveRDS(p1, file='project_data/raw_rvest_data.Rds')

}

[1] "Reading from local file to avoid \"digital rot\"!"

print(p1,n=20)

# A tibble: 162 × 1
   value           
   <chr>           
 1 "■"             
 2 "東京"          
 3 " 13:04発"      
 4 " 13:24発"      
 5 " 14:04発"      
 6 " 14:24発"      
 7 " 15:04発"      
 8 " 15:24発"      
 9 ""              
10 "■"             
11 "上野"          
12 "13:09着13:10発"
13 "13:29着13:30発"
14 "14:09着14:10発"
15 "14:29着14:30発"
16 "15:09着15:10発"
17 "15:29着15:30発"
18 ""              
19 "■"             
20 "大宮"          
# … with 142 more rows
# ℹ Use `print(n = ...)` to see more rows
…
#NB because Japanese font doesn't seem to render on interactive tables, for ease of viewing I drop Station column from output:
jikoku_clean %>% select(-Station)

# A tibble: 35 × 8
   order key   service_3 service_4 service_5 service_6 servi…¹ servi…²
   <dbl> <chr> <chr>     <chr>     <chr>     <chr>     <chr>   <chr>  
 1     1 dpt    13:04     13:24     14:04     14:24     15:04   15:24 
 2     2 arr   13:09     13:29     14:09     14:29     15:09   15:29  
 3     2 dpt   13:10     13:30     14:10     14:30     15:10   15:30  
 4     3 arr   13:28     13:48     14:28     14:48     15:28   15:48  
 5     3 dpt   13:29     13:49     14:29     14:49     15:29   15:49  
 6     4 arr   13:41     <NA>      14:41     <NA>      15:41   <NA>   
 7     4 dpt   13:42     <NA>      14:42     <NA>      15:42   <NA>   
 8     5 arr   13:50     <NA>      14:50     <NA>      15:50   <NA>   
 9     5 dpt   13:51     <NA>      14:51     <NA>      15:51   <NA>   
10     6 arr   14:00     14:14     15:00     15:14     16:00   16:12  
# … with 25 more rows, and abbreviated variable names ¹​service_7,
#   ²​service_8
# ℹ Use `print(n = ...)` to see more rows
…
#manual repair mis-translated: Sakudaira & Annakaharuna
#manual repair Karuizawa: 36.34325739599876, 138.63521437877966

jikoku_gps <- jikoku_gps %>% 
  mutate(lon = ifelse(English=='JR Karuizawa Station,  Japan', 138.63521437877966, lon),
         lat = ifelse(English=='JR Karuizawa Station,  Japan', 36.34325739599876,  lat)) %>% 
  #strip redundant text:
  mutate(English=str_remove_all(English,'JR '),
         English=str_remove_all(English,' Station,  Japan'))
  
write_tsv(jikoku_gps, 'project_data/j_train_lat_lon_GCPbill.tsv')
}

[1] "lat_long exists, dont rerun GCP billing"
# A tibble: 35 × 4
   Station    English        lon   lat
   <chr>      <chr>        <dbl> <dbl>
 1 東京       Tokyo         140.  35.7
 2 上野       Ueno          140.  35.7
 3 上野       Ueno          140.  35.7
 4 大宮       Omiya         140.  35.9
 5 大宮       Omiya         140.  35.9
 6 熊谷       Kumagaya      139.  36.1
 7 熊谷       Kumagaya      139.  36.1
 8 本庄早稲田 Honjo-Waseda  139.  36.2
 9 本庄早稲田 Honjo-Waseda  139.  36.2
10 高崎       Takasaki      139.  36.3
# … with 25 more rows
# ℹ Use `print(n = ...)` to see more rows
…
serviced_stn_long <- serviced_stn_time %>%   
    #First, select only stations within the service timespan, and fill up \
    #  (i.e., omitting stops after mid-point termini for half-services).
  group_by(service) %>% arrange(service,order) %>% #this retains order (NA times for skipped stations are otherwise bumped to bottom)
  mutate(route_stn = ifelse(
        time_recode == min(na.omit(time_recode))|time_recode == max(na.omit(time_recode)), 
        1, 0)) %>% 
    #Next fill the route stations only:
  fill(route_stn, .direction = 'up') %>% 
  mutate(route_stn = ifelse(!is.na(route_stn),'y','n')) %>% ungroup() %>% 
  filter(route_stn!='n') %>% 
  #Drop the tags now the filter is complete:
  select(-contains('stn')) %>% print()

# A tibble: 162 × 11
   order Station    English  key     lon   lat stopD…¹ cumDist service
   <dbl> <chr>      <chr>    <chr> <dbl> <dbl>   <dbl>   <dbl> <chr>  
 1     1 東京       Tokyo    dpt    140.  35.7    0       0    servic…
 2     2 上野       Ueno     arr    140.  35.7    3.78    3.78 servic…
 3     2 上野       Ueno     dpt    140.  35.7    0       0    servic…
 4     3 大宮       Omiya    arr    140.  35.9   25.5    29.3  servic…
 5     3 大宮       Omiya    dpt    140.  35.9    0       0    servic…
 6     4 熊谷       Kumagaya arr    139.  36.1   33.4    62.7  servic…
 7     4 熊谷       Kumagaya dpt    139.  36.1    0       0    servic…
 8     5 本庄早稲田 Honjo-W… arr    139.  36.2   20.9    83.5  servic…
 9     5 本庄早稲田 Honjo-W… dpt    139.  36.2    0       0    servic…
10     6 高崎       Takasaki arr    139.  36.3   18.9   102.   servic…
# … with 152 more rows, 2 more variables: time <chr>,
#   time_recode <dttm>, and abbreviated variable name ¹​stopDist
# ℹ Use `print(n = ...)` to see more rows, and `colnames()` to see all variable names
…
stopDist_Dur_Speed_xprss %>% select(-Station)

# A tibble: 122 × 14
   order English     key     lon   lat stopD…¹ cumDist stopD…² service
   <dbl> <chr>       <chr> <dbl> <dbl>   <dbl>   <dbl>   <dbl> <chr>  
 1     1 Tokyo       dpt    140.  35.7    0       0       0    servic…
 2     2 Ueno        arr    140.  35.7    3.78    3.78    3.78 servic…
 3     2 Ueno        dpt    140.  35.7    0       0       0    servic…
 4     3 Omiya       arr    140.  35.9   25.5    29.3    25.5  servic…
 5     3 Omiya       dpt    140.  35.9    0       0       0    servic…
 6     4 Kumagaya    arr    139.  36.1   33.4    62.7    33.4  servic…
 7     4 Kumagaya    dpt    139.  36.1    0       0       0    servic…
 8     5 Honjo-Wase… arr    139.  36.2   20.9    83.5    20.9  servic…
 9     5 Honjo-Wase… dpt    139.  36.2    0       0       0    servic…
10     6 Takasaki    arr    139.  36.3   18.9   102.     18.9  servic…
# … with 112 more rows, 5 more variables: time <chr>,
#   time_recode <dttm>, time_lag <dttm>, dur <dbl>, avg_kpH <dbl>,
#   and abbreviated variable names ¹​stopDist, ²​stopDist_xprss
# ℹ Use `print(n = ...)` to see more rows, and `colnames()` to see all variable names
…
#Convert duration to the period data type to allow summing with date times (validation only):
jikoku_ttime_join %>%
  mutate(etime_period = as.period(etime)) %>%
  #this yeilds the expected station stop clock times (except for stopping stations following non-stopping ones):
  mutate(time_add = etime_period + time_lag)  %>% 
  select(-Station)

# A tibble: 162 × 18
   order English      key     lat   lon service  stopD…¹ cumDist time 
   <dbl> <chr>        <chr> <dbl> <dbl> <chr>      <dbl>   <dbl> <chr>
 1     1 Tokyo        dpt    35.7  140. service…    0       0     13:…
 2     2 Ueno         arr    35.7  140. service…    3.78    3.78 13:09
 3     2 Ueno         dpt    35.7  140. service…    0       0    13:10
 4     3 Omiya        arr    35.9  140. service…   25.5    29.3  13:28
 5     3 Omiya        dpt    35.9  140. service…    0       0    13:29
 6     4 Kumagaya     arr    36.1  139. service…   33.4    62.7  13:41
 7     4 Kumagaya     dpt    36.1  139. service…    0       0    13:42
 8     5 Honjo-Waseda arr    36.2  139. service…   20.9    83.5  13:50
 9     5 Honjo-Waseda dpt    36.2  139. service…    0       0    13:51
10     6 Takasaki     arr    36.3  139. service…   18.9   102.   14:00
# … with 152 more rows, 9 more variables: time_recode <dttm>,
#   stopDist_xprss <dbl>, time_lag <dttm>, dur <dbl>, avg_kpH <dbl>,
#   dur_fill <dbl>, etime <Duration>, etime_period <Period>,
#   time_add <dttm>, and abbreviated variable name ¹​stopDist
# ℹ Use `print(n = ...)` to see more rows, and `colnames()` to see all variable names
…
#NB drop the Station column of Japanese characters which can't be rendered by this theme:
jikoku_fillin_long %>% select(-Station) 

# A tibble: 162 × 18
   order English      key     lat   lon service  stopD…¹ cumDist time 
   <dbl> <chr>        <chr> <dbl> <dbl> <chr>      <dbl>   <dbl> <chr>
 1     1 Tokyo        dpt    35.7  140. service…    0       0     13:…
 2     2 Ueno         arr    35.7  140. service…    3.78    3.78 13:09
 3     2 Ueno         dpt    35.7  140. service…    0       0    13:10
 4     3 Omiya        arr    35.9  140. service…   25.5    29.3  13:28
 5     3 Omiya        dpt    35.9  140. service…    0       0    13:29
 6     4 Kumagaya     arr    36.1  139. service…   33.4    62.7  13:41
 7     4 Kumagaya     dpt    36.1  139. service…    0       0    13:42
 8     5 Honjo-Waseda arr    36.2  139. service…   20.9    83.5  13:50
 9     5 Honjo-Waseda dpt    36.2  139. service…    0       0    13:51
10     6 Takasaki     arr    36.3  139. service…   18.9   102.   14:00
# … with 152 more rows, 9 more variables: time_recode <dttm>,
#   stopDist_xprss <dbl>, time_lag <dttm>, dur <dbl>, avg_kpH <dbl>,
#   dur_fill <dbl>, etime <Duration>, etime_period <Period>,
#   time_fill <dttm>, and abbreviated variable name ¹​stopDist
# ℹ Use `print(n = ...)` to see more rows, and `colnames()` to see all variable names
…
